^C:\USERS\ARAMOS\DESKTOP\CURL_DEMO\CURL_DEMO\MAIN.CPP
C:\USERS\ARAMOS\DESKTOP\CURL_DEMO\CURL_DEMO\DEBUG\VC140.PDB
C:\USERS\ARAMOS\DESKTOP\CURL_DEMO\CURL_DEMO\DEBUG\VC140.IDB
C:\USERS\ARAMOS\DESKTOP\CURL_DEMO\CURL_DEMO\DEBUG\MAIN.OBJ
